…
You then arrange the remaining tweets by the tweets’ favorite count
which is found in the favorite\_count column.

Both the `filter`-function and the `arrange`-function come from the
dplyr package which is part of tidyverse.

    sesamestreet_data %>% 
      filter(is_retweet == FALSE) %>% 
      arrange(desc(favorite_count))

    ## # A tibble: 871 x 90
    ##    user_id status_id created_at          screen_name text  source
    ##    <chr>   <chr>     <dttm>              <chr>       <chr> <chr> 
    ##  1 863306… 14678714… 2021-12-06 15:00:01 sesamestre… "Lif… Twitt…
    ##  2 863306… 14696833… 2021-12-11 15:00:00 sesamestre… "Ses… Twitt…
    ##  3 863306… 14700457… 2021-12-12 15:00:02 sesamestre… "Our… Twitt…
    ##  4 237845… 14697057… 2021-12-11 16:28:49 GeorgeTakei "Bra… Twitt…
    ##  5 863306… 14682338… 2021-12-07 15:00:03 sesamestre… "Tod… Twitt…
    ##  6 863306… 14679167… 2021-12-06 18:00:00 sesamestre… "Who… Twitt…
    ##  7 863306… 14672378… 2021-12-04 21:02:16 sesamestre… "Cli… Twitt…
    ##  8 863306… 14686566… 2021-12-08 19:00:01 sesamestre… "You… Twitt…
    ##  9 863306… 14675090… 2021-12-05 15:00:01 sesamestre… "Gon… Twitt…
    ## 10 238839… 14682670… 2021-12-07 17:12:01 DanielDBec… "Hol… Twitt…
    ## # … with 861 more rows, and 84 more variables: display_text_width <dbl>,
    ## #   reply_to_status_id <chr>, reply_to_user_id <chr>,
    ## #   reply_to_screen_name <chr>, is_quote <lgl>, is_retweet <lgl>,
    ## #   favorite_count <int>, retweet_count <int>, quote_count <int>,
    ## #   reply_count <int>, hashtags <list>, symbols <list>, urls_url <list>,
    ## #   urls_t.co <list>, urls_expanded_url <list>, media_url <list>,
    ## #   media_t.co <list>, media_expanded_url <list>, media_type <list>,
    ## #   ext_media_url <list>, ext_media_t.co <list>, ext_media_expanded_url <list>,
    ## #   ext_media_type <chr>, mentions_user_id <list>, mentions_screen_name <list>,
…
You now wish to see the top 20 most liked tweets by the non-verified
accounts.

To do this, you follow the same workflow as before, but in our first
code chunk, you include an extra `filter`-function from the
dplyr-package which retains all rows with the value FALSE in the
verified column, thereby removing all tweets from our data which have
been produced by verified accounts.

    sesamestreet_data %>% 
      filter(is_retweet == FALSE) %>%
      filter(verified == FALSE) %>% 
      arrange(desc(favorite_count))

    ## # A tibble: 826 x 90
    ##    user_id status_id created_at          screen_name text  source
    ##    <chr>   <chr>     <dttm>              <chr>       <chr> <chr> 
    ##  1 238839… 14682670… 2021-12-07 17:12:01 DanielDBec… "Hol… Twitt…
    ##  2 423374… 14684103… 2021-12-08 02:41:22 Bigbird96   "\"H… Twitt…
    ##  3 270949… 14697017… 2021-12-11 16:12:46 MHermannPh… "A j… Twitt…
    ##  4 189820… 14700472… 2021-12-12 15:05:48 GirlOnAnIs… "We … Twitt…
    ##  5 284002… 14682977… 2021-12-07 19:14:00 MuppetWiki  "Lon… Twitt…
    ##  6 987334… 14681832… 2021-12-07 11:38:50 miszaszym1  "Loo… Twitt…
    ##  7 745564… 14688026… 2021-12-09 04:40:16 ladyheathe… "All… Twitt…
    ##  8 124377… 14683917… 2021-12-08 01:27:22 Nakwame_Sa… "\"H… Twitt…
    ##  9 142007… 14679019… 2021-12-06 17:01:11 momrrystag… "I l… Twitt…
    ## 10 121330… 14682489… 2021-12-07 16:00:00 magic_ratd… "🎶🔔H… Twitt…
    ## # … with 816 more rows, and 84 more variables: display_text_width <dbl>,
    ## #   reply_to_status_id <chr>, reply_to_user_id <chr>,
    ## #   reply_to_screen_name <chr>, is_quote <lgl>, is_retweet <lgl>,
    ## #   favorite_count <int>, retweet_count <int>, quote_count <int>,
    ## #   reply_count <int>, hashtags <list>, symbols <list>, urls_url <list>,
    ## #   urls_t.co <list>, urls_expanded_url <list>, media_url <list>,
    ## #   media_t.co <list>, media_expanded_url <list>, media_type <list>,
    ## #   ext_media_url <list>, ext_media_t.co <list>, ext_media_expanded_url <list>,
    ## #   ext_media_type <chr>, mentions_user_id <list>, mentions_screen_name <list>,
…
# Inspecting our new dafaframe (non-verified)

We once again create a quick overview of our new dataset by using the
`select` and `arrange`-function as in before, and inspect our chosen
values in the returned data.frame.

    sesamestreet_data_favorite_count_over_15_non_verified %>% 
      select(favorite_count, screen_name, verified, text) %>% 
      arrange(desc(favorite_count))

    ## # A tibble: 42 x 4
    ##    favorite_count screen_name   verified text                                   
    ##             <int> <chr>         <lgl>    <chr>                                  
    ##  1            286 DanielDBeckw… FALSE    "Holiday Card #7, 2016\n\"Gee, Bert, d…
    ##  2            166 Bigbird96     FALSE    "\"How do I know I'm here, not in some…
    ##  3             98 MHermannPhoto FALSE    "A joyous night as @StreetGangMovie ce…
    ##  4             82 GirlOnAnIsla… FALSE    "We just put a mini tree up in my daug…
    ##  5             73 MuppetWiki    FALSE    "Long before social media was used to …
    ##  6             48 miszaszym1    FALSE    "Look! It's a cookie! @LEGO_Group #leg…
    ##  7             43 ladyheatherl… FALSE    "All the doctor books are always “you …
    ##  8             35 Nakwame_Sasha FALSE    "\"Hey Bert!\"\n.\n.\n#sesamestreet #s…
    ##  9             33 momrrystagram FALSE    "I love U! ❤️ #TheLetterU #SesameStree…
    ## 10             24 magic_ratdem… FALSE    "🎶🔔Happy Birthday Rosita🔔🎶\n#sesamestr…
    ## # … with 32 more rows
…
